Data_Analysis_#2
…
  options(scipen=999)

#Yes.The trend of opiod sales dropping in January can be seen at a national level. The drop from December to January is about a 75 million difference which I consider significant.

pills_state_monthCH <- pivot_wider(pills_state_month, id_cols = buyer_state, names_from = month,
  values_from = total_pills, values_fill = NULL, values_fn = NULL) 

pills_state_monthCH 

## # A tibble: 51 x 13
##    buyer_state   `01`   `02`   `03`   `04`   `05`   `06`   `07`   `08`
##    <chr>        <dbl>  <dbl>  <dbl>  <dbl>  <dbl>  <dbl>  <dbl>  <dbl>
##  1 AL          1.26e8 1.26e8 1.41e8 1.37e8 1.47e8 1.47e8 1.44e8 1.44e8
##  2 AK          1.10e7 1.03e7 1.16e7 1.12e7 1.17e7 1.18e7 1.18e7 1.20e7
##  3 AZ          1.31e8 1.33e8 1.50e8 1.40e8 1.44e8 1.44e8 1.41e8 1.47e8
##  4 AR          6.95e7 6.66e7 7.41e7 7.34e7 7.56e7 7.65e7 7.54e7 7.66e7
##  5 CA          6.43e8 6.13e8 6.91e8 6.61e8 6.66e8 6.87e8 6.71e8 6.80e8
##  6 CO          7.73e7 7.73e7 8.79e7 8.18e7 8.50e7 8.65e7 8.60e7 8.87e7
##  7 CT          5.33e7 5.07e7 5.74e7 5.39e7 5.63e7 5.96e7 5.65e7 5.77e7
##  8 DC          4.50e6 4.47e6 5.19e6 4.92e6 4.81e6 5.14e6 4.82e6 4.98e6
##  9 DE          2.15e7 2.11e7 2.39e7 2.22e7 2.33e7 2.37e7 2.32e7 2.37e7
## 10 FL          4.53e8 4.38e8 4.87e8 4.66e8 4.72e8 4.72e8 4.52e8 4.63e8
## #  with 41 more rows, and 4 more variables: `09` <dbl>, `10` <dbl>,
## #   `11` <dbl>, `12` <dbl>

pills_state_monthCH %>%
      select(buyer_state, "01","12") 

## # A tibble: 51 x 3
##    buyer_state       `01`       `12`
##    <chr>            <dbl>      <dbl>
##  1 AL          126230379. 151764852.
##  2 AK           10954500   11997385 
##  3 AZ          131069145  155028762 
##  4 AR           69465255   78997805 
##  5 CA          643428846. 710596384.
##  6 CO           77261859   89607936 
##  7 CT           53277259.  60046532.
##  8 DC            4500230    4982350 
##  9 DE           21509140   24360290 
## 10 FL          452927074. 486506020 
## #  with 41 more rows
…
pills_county_month %>%
      select(buyer_county, month, total_pills) %>%
      filter(buyer_county =="SULLIVAN")

## # A tibble: 72 x 3
##    buyer_county month total_pills
##    <chr>        <chr>       <dbl>
##  1 SULLIVAN     01         639040
##  2 SULLIVAN     02         680500
##  3 SULLIVAN     03         728500
##  4 SULLIVAN     04         689200
##  5 SULLIVAN     05         750620
##  6 SULLIVAN     06         773500
##  7 SULLIVAN     07         775100
##  8 SULLIVAN     08         751700
##  9 SULLIVAN     09         768660
## 10 SULLIVAN     10         782300
## #  with 62 more rows
…
pills_county_month %>%
      select(buyer_county, month, total_pills) %>%
      filter(buyer_county =="WOOD")

## # A tibble: 48 x 3
##    buyer_county month total_pills
##    <chr>        <chr>       <dbl>
##  1 WOOD         01        2360390
##  2 WOOD         02        2257410
##  3 WOOD         03        2535230
##  4 WOOD         04        2465170
##  5 WOOD         05        2523510
##  6 WOOD         06        2466515
##  7 WOOD         07        2636430
##  8 WOOD         08        2337370
##  9 WOOD         09        2431520
## 10 WOOD         10        2658870
## #  with 38 more rows

pills_county_month %>%
      select(buyer_county, month, total_pills) %>%
      filter(buyer_county =="WAYNE")

## # A tibble: 192 x 3
##    buyer_county month total_pills
##    <chr>        <chr>       <dbl>
##  1 WAYNE        01         996770
##  2 WAYNE        02        1006240
##  3 WAYNE        03        1111640
##  4 WAYNE        04        1142115
##  5 WAYNE        05        1266080
##  6 WAYNE        06        1135690
##  7 WAYNE        07        1055320
##  8 WAYNE        08        1089920
##  9 WAYNE        09        1051330
## 10 WAYNE        10        1230220
## #  with 182 more rows
…
pills_county_month %>%
      select(buyer_county, month, total_pills) %>%
      filter(buyer_county =="WRIGHT")

## # A tibble: 36 x 3
##    buyer_county month total_pills
##    <chr>        <chr>       <dbl>
##  1 WRIGHT       01         236130
##  2 WRIGHT       02         213730
##  3 WRIGHT       03         259060
##  4 WRIGHT       04         235060
##  5 WRIGHT       05         254600
##  6 WRIGHT       06         254830
##  7 WRIGHT       07         246860
##  8 WRIGHT       08         255800
##  9 WRIGHT       09         234900
## 10 WRIGHT       10         252700
## #  with 26 more rows

pills_county_month %>%
      select(buyer_county, month, total_pills) %>%
      filter(buyer_county =="WORTH")

## # A tibble: 36 x 3
##    buyer_county month total_pills
##    <chr>        <chr>       <dbl>
##  1 WORTH        01         266220
##  2 WORTH        02         282820
##  3 WORTH        03         305700
##  4 WORTH        04         319130
##  5 WORTH        05         301630
##  6 WORTH        06         319160
##  7 WORTH        07         302960
##  8 WORTH        08         333020
##  9 WORTH        09         315020
## 10 WORTH        10         321730
## #  with 26 more rows
…
